{
  "language": ["java", "python", "docker", "nodejs"],
  "ci": ["github-actions", "gitlab-ci", "jenkins"],
  "builder": ["none", "kubernetes", "openstack"],
  "build_tool": ["maven", "tox", "docker", "npm"],
  "artifact_host": ["none"],
  "distribution_host": ["none", "github-packages", "dockerhub", "gitlab-packages", "npmjs"],
  "documentation": "n",
  "container_builds": "n",
  "default_branch": "master",
  "sonar_scanning": ["none", "sonarcloud", "sonarqube"],
  "toolchain_name": "itx-{{ cookiecutter.language }}-toolchain"
}
